---
http_interactions:
- request:
    method: get
    uri: https://api.mavenlink.com/api/v1/invoices
    body:
      encoding: US-ASCII
      string: ''
    headers:
      Authorization:
      - Bearer <API_TOKEN>
  response:
    status:
      code: 200
      message: OK
    headers:
      Date:
      - Mon, 22 Feb 2021 16:18:51 GMT
      Content-Type:
      - application/json; charset=utf-8
      Transfer-Encoding:
      - chunked
      Connection:
      - keep-alive
      Status:
      - 200 OK
      Cache-Control:
      - no-cache, no-store
      Pragma:
      - no-cache
      Expires:
      - Fri, 01 Jan 1990 00:00:00 GMT
      Etag:
      - W/"2fcc9130a4c6fd9a21a648c638c395a8"
      X-Request-Id:
      - 0d6b8c83-0e0e-4e7b-be63-b72eb6cb296e
      X-Runtime:
      - '1.143047'
      Strict-Transport-Security:
      - max-age=631139040
      X-Content-Type-Options:
      - nosniff
      X-Download-Options:
      - noopen
      X-Frame-Options:
      - SAMEORIGIN
      X-Permitted-Cross-Domain-Policies:
      - none
      X-Xss-Protection:
      - 1; mode=block
    body:
      encoding: UTF-8
      string: '{"count":9616,"results":[{"key":"invoices","id":"10665885"},{"key":"invoices","id":"10665875"},{"key":"invoices","id":"10665795"},{"key":"invoices","id":"10664855"},{"key":"invoices","id":"10664845"},{"key":"invoices","id":"10664835"},{"key":"invoices","id":"10664825"},{"key":"invoices","id":"10664815"},{"key":"invoices","id":"10664805"},{"key":"invoices","id":"10664795"},{"key":"invoices","id":"10664775"},{"key":"invoices","id":"10664765"},{"key":"invoices","id":"10664755"},{"key":"invoices","id":"10664425"},{"key":"invoices","id":"10664375"},{"key":"invoices","id":"10664365"},{"key":"invoices","id":"10664355"},{"key":"invoices","id":"10664335"},{"key":"invoices","id":"10664315"},{"key":"invoices","id":"10664305"}],"invoices":{"10665885":{"created_at":"2021-02-22T08:16:52-08:00","updated_at":"2021-02-22T08:16:52-08:00","invoice_date":"2021-02-22","due_date":"2021-02-22","status":"new","title":"Invoice
        #19048","user_invoice_number":19048,"user_invoice_title":null,"tax_rate":0.0,"purchase_order":null,"project_code":null,"message":null,"draft":false,"payment_schedule":0,"balance_in_cents":50000,"currency":"USD","currency_symbol":"$","currency_base_unit":100,"recipient_id":null,"user_id":"12069395","id":"10665885"},"10665875":{"created_at":"2021-02-22T08:16:07-08:00","updated_at":"2021-02-22T08:16:07-08:00","invoice_date":"2021-02-22","due_date":"2021-02-22","status":"new","title":"Invoice
        #19047","user_invoice_number":19047,"user_invoice_title":null,"tax_rate":0.0,"purchase_order":null,"project_code":null,"message":null,"draft":false,"payment_schedule":0,"balance_in_cents":50000,"currency":"USD","currency_symbol":"$","currency_base_unit":100,"recipient_id":null,"user_id":"12069395","id":"10665875"},"10665795":{"created_at":"2021-02-22T08:04:07-08:00","updated_at":"2021-02-22T08:04:07-08:00","invoice_date":"2021-02-22","due_date":"2021-03-14","status":"new","title":"Invoice
        #19046","user_invoice_number":19046,"user_invoice_title":null,"tax_rate":0.0,"purchase_order":null,"project_code":null,"message":null,"draft":false,"payment_schedule":20,"balance_in_cents":900,"currency":"USD","currency_symbol":"$","currency_base_unit":100,"recipient_id":null,"user_id":"12069395","id":"10665795"},"10664855":{"created_at":"2021-02-22T00:18:03-08:00","updated_at":"2021-02-22T00:18:48-08:00","invoice_date":"2021-01-31","due_date":"2021-01-31","status":"accepted
        payment","title":"Invoice #19045","user_invoice_number":19045,"user_invoice_title":"","tax_rate":0.0,"purchase_order":"","project_code":"","message":"","draft":false,"payment_schedule":0,"balance_in_cents":100000,"currency":"USD","currency_symbol":"$","currency_base_unit":100,"recipient_id":null,"user_id":"13108775","id":"10664855"},"10664845":{"created_at":"2021-02-22T00:14:24-08:00","updated_at":"2021-02-22T00:15:12-08:00","invoice_date":"2021-01-31","due_date":"2021-01-31","status":"accepted
        payment","title":"Invoice #19044","user_invoice_number":19044,"user_invoice_title":"","tax_rate":0.0,"purchase_order":"","project_code":"","message":"","draft":false,"payment_schedule":0,"balance_in_cents":125000,"currency":"USD","currency_symbol":"$","currency_base_unit":100,"recipient_id":null,"user_id":"13108775","id":"10664845"},"10664835":{"created_at":"2021-02-22T00:11:35-08:00","updated_at":"2021-02-22T00:12:12-08:00","invoice_date":"2021-01-31","due_date":"2021-01-31","status":"accepted
        payment","title":"Invoice #19043","user_invoice_number":19043,"user_invoice_title":"","tax_rate":0.0,"purchase_order":"","project_code":"","message":"","draft":false,"payment_schedule":0,"balance_in_cents":50000,"currency":"USD","currency_symbol":"$","currency_base_unit":100,"recipient_id":null,"user_id":"13108775","id":"10664835"},"10664825":{"created_at":"2021-02-22T00:08:27-08:00","updated_at":"2021-02-22T00:09:05-08:00","invoice_date":"2021-01-31","due_date":"2021-01-31","status":"accepted
        payment","title":"Invoice #19042","user_invoice_number":19042,"user_invoice_title":"","tax_rate":0.0,"purchase_order":"","project_code":"","message":"","draft":false,"payment_schedule":0,"balance_in_cents":85000,"currency":"USD","currency_symbol":"$","currency_base_unit":100,"recipient_id":null,"user_id":"13108775","id":"10664825"},"10664815":{"created_at":"2021-02-22T00:01:40-08:00","updated_at":"2021-02-22T00:02:22-08:00","invoice_date":"2021-01-31","due_date":"2021-01-31","status":"accepted
        payment","title":"Invoice #19041","user_invoice_number":19041,"user_invoice_title":"","tax_rate":0.0,"purchase_order":"","project_code":"","message":"","draft":false,"payment_schedule":0,"balance_in_cents":50000,"currency":"USD","currency_symbol":"$","currency_base_unit":100,"recipient_id":null,"user_id":"13108775","id":"10664815"},"10664805":{"created_at":"2021-02-21T23:58:24-08:00","updated_at":"2021-02-21T23:59:42-08:00","invoice_date":"2021-01-31","due_date":"2021-03-02","status":"accepted
        payment","title":"Invoice #19040","user_invoice_number":19040,"user_invoice_title":"","tax_rate":0.0,"purchase_order":"","project_code":"","message":"","draft":false,"payment_schedule":30,"balance_in_cents":50000,"currency":"USD","currency_symbol":"$","currency_base_unit":100,"recipient_id":null,"user_id":"13108775","id":"10664805"},"10664795":{"created_at":"2021-02-21T23:46:02-08:00","updated_at":"2021-02-21T23:46:40-08:00","invoice_date":"2021-01-31","due_date":"2021-01-31","status":"accepted
        payment","title":"Invoice #19039","user_invoice_number":19039,"user_invoice_title":"","tax_rate":0.0,"purchase_order":"","project_code":"","message":"","draft":false,"payment_schedule":0,"balance_in_cents":37500,"currency":"USD","currency_symbol":"$","currency_base_unit":100,"recipient_id":null,"user_id":"13108775","id":"10664795"},"10664775":{"created_at":"2021-02-21T23:36:28-08:00","updated_at":"2021-02-21T23:37:20-08:00","invoice_date":"2021-01-31","due_date":"2021-01-31","status":"accepted
        payment","title":"Invoice #19038","user_invoice_number":19038,"user_invoice_title":"","tax_rate":0.0,"purchase_order":"","project_code":"","message":"","draft":false,"payment_schedule":0,"balance_in_cents":100000,"currency":"USD","currency_symbol":"$","currency_base_unit":100,"recipient_id":null,"user_id":"13108775","id":"10664775"},"10664765":{"created_at":"2021-02-21T23:10:47-08:00","updated_at":"2021-02-21T23:10:47-08:00","invoice_date":"2021-01-31","due_date":"2021-03-02","status":"new","title":"Invoice
        #19037","user_invoice_number":19037,"user_invoice_title":"","tax_rate":0.0,"purchase_order":"","project_code":"","message":"","draft":false,"payment_schedule":30,"balance_in_cents":14650,"currency":"USD","currency_symbol":"$","currency_base_unit":100,"recipient_id":null,"user_id":"13108775","id":"10664765"},"10664755":{"created_at":"2021-02-21T23:01:48-08:00","updated_at":"2021-02-21T23:02:49-08:00","invoice_date":"2021-01-31","due_date":"2021-01-31","status":"accepted
        payment","title":"Invoice #19036","user_invoice_number":19036,"user_invoice_title":"","tax_rate":0.0,"purchase_order":"","project_code":"","message":"","draft":false,"payment_schedule":0,"balance_in_cents":65000,"currency":"USD","currency_symbol":"$","currency_base_unit":100,"recipient_id":null,"user_id":"13108775","id":"10664755"},"10664425":{"created_at":"2021-02-21T22:54:26-08:00","updated_at":"2021-02-21T22:55:15-08:00","invoice_date":"2021-01-31","due_date":"2021-01-31","status":"accepted
        payment","title":"Invoice #19035","user_invoice_number":19035,"user_invoice_title":"","tax_rate":0.0,"purchase_order":"","project_code":"","message":"","draft":false,"payment_schedule":0,"balance_in_cents":168000,"currency":"USD","currency_symbol":"$","currency_base_unit":100,"recipient_id":null,"user_id":"13108775","id":"10664425"},"10664375":{"created_at":"2021-02-21T22:23:54-08:00","updated_at":"2021-02-21T22:24:35-08:00","invoice_date":"2021-01-31","due_date":"2021-01-31","status":"accepted
        payment","title":"Invoice #19034","user_invoice_number":19034,"user_invoice_title":"","tax_rate":0.0,"purchase_order":"","project_code":"","message":"","draft":false,"payment_schedule":0,"balance_in_cents":35000,"currency":"USD","currency_symbol":"$","currency_base_unit":100,"recipient_id":null,"user_id":"13108775","id":"10664375"},"10664365":{"created_at":"2021-02-21T22:09:35-08:00","updated_at":"2021-02-21T22:10:19-08:00","invoice_date":"2021-01-31","due_date":"2021-01-31","status":"accepted
        payment","title":"Invoice #19033","user_invoice_number":19033,"user_invoice_title":"","tax_rate":0.0,"purchase_order":"","project_code":"","message":"","draft":false,"payment_schedule":0,"balance_in_cents":40000,"currency":"USD","currency_symbol":"$","currency_base_unit":100,"recipient_id":null,"user_id":"13108775","id":"10664365"},"10664355":{"created_at":"2021-02-21T22:01:16-08:00","updated_at":"2021-02-21T22:01:53-08:00","invoice_date":"2021-01-31","due_date":"2021-01-31","status":"accepted
        payment","title":"Invoice #19032","user_invoice_number":19032,"user_invoice_title":"","tax_rate":0.0,"purchase_order":"","project_code":"","message":"","draft":false,"payment_schedule":0,"balance_in_cents":42500,"currency":"USD","currency_symbol":"$","currency_base_unit":100,"recipient_id":null,"user_id":"13108775","id":"10664355"},"10664335":{"created_at":"2021-02-21T21:53:08-08:00","updated_at":"2021-02-21T21:54:59-08:00","invoice_date":"2021-01-31","due_date":"2021-01-31","status":"accepted
        payment","title":"Invoice #19031","user_invoice_number":19031,"user_invoice_title":"","tax_rate":0.0,"purchase_order":"","project_code":"","message":"","draft":false,"payment_schedule":0,"balance_in_cents":37500,"currency":"USD","currency_symbol":"$","currency_base_unit":100,"recipient_id":null,"user_id":"13108775","id":"10664335"},"10664315":{"created_at":"2021-02-21T21:45:55-08:00","updated_at":"2021-02-21T21:48:55-08:00","invoice_date":"2021-01-31","due_date":"2021-01-31","status":"accepted
        payment","title":"Invoice #19030","user_invoice_number":19030,"user_invoice_title":"","tax_rate":0.0,"purchase_order":"","project_code":"","message":"","draft":false,"payment_schedule":0,"balance_in_cents":40000,"currency":"USD","currency_symbol":"$","currency_base_unit":100,"recipient_id":null,"user_id":"13108775","id":"10664315"},"10664305":{"created_at":"2021-02-21T21:40:46-08:00","updated_at":"2021-02-21T21:42:36-08:00","invoice_date":"2021-01-31","due_date":"2021-01-31","status":"accepted
        payment","title":"Invoice #19029","user_invoice_number":19029,"user_invoice_title":"","tax_rate":0.0,"purchase_order":"","project_code":"","message":"","draft":false,"payment_schedule":0,"balance_in_cents":80000,"currency":"USD","currency_symbol":"$","currency_base_unit":100,"recipient_id":null,"user_id":"13108775","id":"10664305"}},"meta":{"count":9616,"page_count":481,"page_number":1,"page_size":20}}'
    http_version: 
  recorded_at: Mon, 22 Feb 2021 16:18:51 GMT
recorded_with: VCR 5.0.0
