---
http_interactions:
- request:
    method: get
    uri: https://api.mavenlink.com/api/v1/custom_field_values?subject_type=workspace_group
    body:
      encoding: US-ASCII
      string: ''
    headers:
      Authorization:
      - Bearer <API_TOKEN>
  response:
    status:
      code: 200
      message: OK
    headers:
      Date:
      - Wed, 17 Feb 2021 15:45:15 GMT
      Content-Type:
      - application/json; charset=utf-8
      Transfer-Encoding:
      - chunked
      Connection:
      - keep-alive
      Status:
      - 200 OK
      Cache-Control:
      - no-cache, no-store
      Pragma:
      - no-cache
      Expires:
      - Fri, 01 Jan 1990 00:00:00 GMT
      Etag:
      - W/"b5f73a764701f0fcf5e9a22078d1ec05"
      X-Request-Id:
      - db86d13b-1cff-4e54-9fc6-4981500524ae
      X-Runtime:
      - '0.090023'
      Strict-Transport-Security:
      - max-age=631139040
      X-Content-Type-Options:
      - nosniff
      X-Download-Options:
      - noopen
      X-Frame-Options:
      - SAMEORIGIN
      X-Permitted-Cross-Domain-Policies:
      - none
      X-Xss-Protection:
      - 1; mode=block
    body:
      encoding: UTF-8
      string: '{"count":429,"results":[{"key":"custom_field_values","id":"314259865"},{"key":"custom_field_values","id":"329791525"},{"key":"custom_field_values","id":"333644625"},{"key":"custom_field_values","id":"333644735"},{"key":"custom_field_values","id":"333645385"},{"key":"custom_field_values","id":"333645415"},{"key":"custom_field_values","id":"340408075"},{"key":"custom_field_values","id":"340408125"},{"key":"custom_field_values","id":"340915055"},{"key":"custom_field_values","id":"340915885"},{"key":"custom_field_values","id":"340915915"},{"key":"custom_field_values","id":"340916555"},{"key":"custom_field_values","id":"340931705"},{"key":"custom_field_values","id":"340995525"},{"key":"custom_field_values","id":"340995895"},{"key":"custom_field_values","id":"340996495"},{"key":"custom_field_values","id":"340997155"},{"key":"custom_field_values","id":"340997345"},{"key":"custom_field_values","id":"340997595"},{"key":"custom_field_values","id":"340997655"}],"custom_field_values":{"314259865":{"subject_type":"workspace_group","subject_id":2223265,"value":"cus_FxpO6Tatea1K3y","account_id":6300575,"custom_field_name":"Stripe
        ID","type":"string","display_value":"cus_FxpO6Tatea1K3y","can_edit":true,"created_at":"2020-01-02T12:30:06-08:00","updated_at":"2020-01-02T12:30:06-08:00","custom_field_id":"602325","setter_id":"12304555","id":"314259865"},"329791525":{"subject_type":"workspace_group","subject_id":2551145,"value":"cus_GrBlkqkgd6INFy","account_id":6300575,"custom_field_name":"Stripe
        ID","type":"string","display_value":"cus_GrBlkqkgd6INFy","can_edit":true,"created_at":"2020-03-05T15:48:48-08:00","updated_at":"2020-03-05T15:48:48-08:00","custom_field_id":"602325","setter_id":"12069395","id":"329791525"},"333644625":{"subject_type":"workspace_group","subject_id":2186105,"value":"cus_H8bSJlqThGB0eY","account_id":6300575,"custom_field_name":"Stripe
        ID","type":"string","display_value":"cus_H8bSJlqThGB0eY","can_edit":true,"created_at":"2020-03-25T05:01:54-07:00","updated_at":"2020-04-21T04:28:16-07:00","custom_field_id":"602325","setter_id":"12068255","id":"333644625"},"333644735":{"subject_type":"workspace_group","subject_id":2310465,"value":"cus_H8bVhbPqob23yz","account_id":6300575,"custom_field_name":"Stripe
        ID","type":"string","display_value":"cus_H8bVhbPqob23yz","can_edit":true,"created_at":"2020-03-25T05:02:22-07:00","updated_at":"2020-04-21T04:30:40-07:00","custom_field_id":"602325","setter_id":"12068255","id":"333644735"},"333645385":{"subject_type":"workspace_group","subject_id":2336765,"value":"cus_H8bYxNu72Ta3NV","account_id":6300575,"custom_field_name":"Stripe
        ID","type":"string","display_value":"cus_H8bYxNu72Ta3NV","can_edit":true,"created_at":"2020-03-25T05:07:50-07:00","updated_at":"2020-04-21T04:33:42-07:00","custom_field_id":"602325","setter_id":"12068255","id":"333645385"},"333645415":{"subject_type":"workspace_group","subject_id":2186125,"value":"cus_H8bbZoPbNQPTa3","account_id":6300575,"custom_field_name":"Stripe
        ID","type":"string","display_value":"cus_H8bbZoPbNQPTa3","can_edit":true,"created_at":"2020-03-25T05:08:13-07:00","updated_at":"2020-04-21T04:36:20-07:00","custom_field_id":"602325","setter_id":"12068255","id":"333645415"},"340408075":{"subject_type":"workspace_group","subject_id":2193795,"value":"cus_H8baAoLvJNqJrQ","account_id":6300575,"custom_field_name":"Stripe
        ID","type":"string","display_value":"cus_H8baAoLvJNqJrQ","can_edit":true,"created_at":"2020-04-17T12:04:13-07:00","updated_at":"2020-04-21T04:34:55-07:00","custom_field_id":"602325","setter_id":"12068255","id":"340408075"},"340408125":{"subject_type":"workspace_group","subject_id":2186135,"value":"cus_H8bcFwCL18PQTy","account_id":6300575,"custom_field_name":"Stripe
        ID","type":"string","display_value":"cus_H8bcFwCL18PQTy","can_edit":true,"created_at":"2020-04-17T12:04:57-07:00","updated_at":"2020-04-21T04:37:05-07:00","custom_field_id":"602325","setter_id":"12068255","id":"340408125"},"340915055":{"subject_type":"workspace_group","subject_id":2186095,"value":"cus_H8bP2zUZTCl9iK","account_id":6300575,"custom_field_name":"Stripe
        ID","type":"string","display_value":"cus_H8bP2zUZTCl9iK","can_edit":true,"created_at":"2020-04-21T04:26:22-07:00","updated_at":"2020-04-21T04:26:22-07:00","custom_field_id":"602325","setter_id":"12069395","id":"340915055"},"340915885":{"subject_type":"workspace_group","subject_id":2186115,"value":"cus_H8bUBAs0NSEBdD","account_id":6300575,"custom_field_name":"Stripe
        ID","type":"string","display_value":"cus_H8bUBAs0NSEBdD","can_edit":true,"created_at":"2020-04-21T04:29:23-07:00","updated_at":"2020-04-21T04:29:23-07:00","custom_field_id":"602325","setter_id":"12069395","id":"340915885"},"340915915":{"subject_type":"workspace_group","subject_id":2690565,"value":"cus_H8bWhlcbs58a66","account_id":6300575,"custom_field_name":"Stripe
        ID","type":"string","display_value":"cus_H8bWhlcbs58a66","can_edit":true,"created_at":"2020-04-21T04:31:39-07:00","updated_at":"2020-04-21T04:31:39-07:00","custom_field_id":"602325","setter_id":"12069395","id":"340915915"},"340916555":{"subject_type":"workspace_group","subject_id":2186155,"value":"cus_H8beIDYBucH61l","account_id":6300575,"custom_field_name":"Stripe
        ID","type":"string","display_value":"cus_H8beIDYBucH61l","can_edit":true,"created_at":"2020-04-21T04:42:01-07:00","updated_at":"2020-04-21T04:42:01-07:00","custom_field_id":"602325","setter_id":"12069395","id":"340916555"},"340931705":{"subject_type":"workspace_group","subject_id":2186165,"value":"cus_H8dEdMs3tf5eoI","account_id":6300575,"custom_field_name":"Stripe
        ID","type":"string","display_value":"cus_H8dEdMs3tf5eoI","can_edit":true,"created_at":"2020-04-21T06:17:17-07:00","updated_at":"2020-04-21T06:17:17-07:00","custom_field_id":"602325","setter_id":"12069395","id":"340931705"},"340995525":{"subject_type":"workspace_group","subject_id":2186195,"value":"cus_H8hmBp0anaX6F9","account_id":6300575,"custom_field_name":"Stripe
        ID","type":"string","display_value":"cus_H8hmBp0anaX6F9","can_edit":true,"created_at":"2020-04-21T10:59:11-07:00","updated_at":"2020-04-21T10:59:11-07:00","custom_field_id":"602325","setter_id":"12069395","id":"340995525"},"340995895":{"subject_type":"workspace_group","subject_id":2186235,"value":"cus_H8hnqGWzqVuoxY","account_id":6300575,"custom_field_name":"Stripe
        ID","type":"string","display_value":"cus_H8hnqGWzqVuoxY","can_edit":true,"created_at":"2020-04-21T11:00:26-07:00","updated_at":"2020-04-21T11:00:26-07:00","custom_field_id":"602325","setter_id":"12069395","id":"340995895"},"340996495":{"subject_type":"workspace_group","subject_id":2547545,"value":"cus_H8hp0soEdcXoaw","account_id":6300575,"custom_field_name":"Stripe
        ID","type":"string","display_value":"cus_H8hp0soEdcXoaw","can_edit":true,"created_at":"2020-04-21T11:02:00-07:00","updated_at":"2020-04-21T11:02:00-07:00","custom_field_id":"602325","setter_id":"12069395","id":"340996495"},"340997155":{"subject_type":"workspace_group","subject_id":2351885,"value":"cus_H8hqxvmc3YxcMW","account_id":6300575,"custom_field_name":"Stripe
        ID","type":"string","display_value":"cus_H8hqxvmc3YxcMW","can_edit":true,"created_at":"2020-04-21T11:03:12-07:00","updated_at":"2020-04-21T11:03:12-07:00","custom_field_id":"602325","setter_id":"12069395","id":"340997155"},"340997345":{"subject_type":"workspace_group","subject_id":2186265,"value":"cus_H8hrFyLu78pSoR","account_id":6300575,"custom_field_name":"Stripe
        ID","type":"string","display_value":"cus_H8hrFyLu78pSoR","can_edit":true,"created_at":"2020-04-21T11:04:21-07:00","updated_at":"2020-04-21T11:04:21-07:00","custom_field_id":"602325","setter_id":"12069395","id":"340997345"},"340997595":{"subject_type":"workspace_group","subject_id":2186285,"value":"cus_H8hsMAjSiTB2zT","account_id":6300575,"custom_field_name":"Stripe
        ID","type":"string","display_value":"cus_H8hsMAjSiTB2zT","can_edit":true,"created_at":"2020-04-21T11:05:26-07:00","updated_at":"2020-04-21T11:05:26-07:00","custom_field_id":"602325","setter_id":"12069395","id":"340997595"},"340997655":{"subject_type":"workspace_group","subject_id":2140695,"value":"cus_H8ht27BLFcS7De","account_id":6300575,"custom_field_name":"Stripe
        ID","type":"string","display_value":"cus_H8ht27BLFcS7De","can_edit":true,"created_at":"2020-04-21T11:06:32-07:00","updated_at":"2020-04-21T11:06:32-07:00","custom_field_id":"602325","setter_id":"12069395","id":"340997655"}},"meta":{"count":429,"page_count":22,"page_number":1,"page_size":20}}'
    http_version: 
  recorded_at: Wed, 17 Feb 2021 15:45:15 GMT
recorded_with: VCR 5.0.0
