---
http_interactions:
- request:
    method: get
    uri: https://api.mavenlink.com/api/v1/invoices
    body:
      encoding: US-ASCII
      string: ''
    headers:
      Authorization:
      - Bearer API_TOKEN
  response:
    status:
      code: 200
      message: OK
    headers:
      Date:
      - Sun, 09 Feb 2020 22:23:22 GMT
      Content-Type:
      - application/json; charset=utf-8
      Transfer-Encoding:
      - chunked
      Connection:
      - keep-alive
      Status:
      - 200 OK
      Cache-Control:
      - no-cache, no-store
      Pragma:
      - no-cache
      Expires:
      - Fri, 01 Jan 1990 00:00:00 GMT
      X-Request-Id:
      - 02afb3d8-8377-403d-b848-08474def745f
      X-Runtime:
      - '0.352913'
      Strict-Transport-Security:
      - max-age=631139040
      X-Content-Type-Options:
      - nosniff
      X-Download-Options:
      - noopen
      X-Frame-Options:
      - SAMEORIGIN
      X-Permitted-Cross-Domain-Policies:
      - none
      X-Xss-Protection:
      - 1; mode=block
    body:
      encoding: UTF-8
      string: '{"count":2402,"results":[{"key":"invoices","id":"8185325"},{"key":"invoices","id":"8185315"},{"key":"invoices","id":"8185305"},{"key":"invoices","id":"8185295"},{"key":"invoices","id":"8169005"},{"key":"invoices","id":"8168995"},{"key":"invoices","id":"8168985"},{"key":"invoices","id":"8168965"},{"key":"invoices","id":"8168955"},{"key":"invoices","id":"8168935"},{"key":"invoices","id":"8168925"},{"key":"invoices","id":"8168915"},{"key":"invoices","id":"8168885"},{"key":"invoices","id":"8168875"},{"key":"invoices","id":"8168865"},{"key":"invoices","id":"8168835"},{"key":"invoices","id":"8168815"},{"key":"invoices","id":"8168795"},{"key":"invoices","id":"8168755"},{"key":"invoices","id":"8168725"}],"invoices":{"8185325":{"created_at":"2020-02-08T00:15:54-08:00","updated_at":"2020-02-08T00:15:54-08:00","invoice_date":"2020-01-31","due_date":"2020-03-01","status":"new","title":"Draft
        Invoice #11837","user_invoice_number":11837,"user_invoice_title":"","tax_rate":0.0,"purchase_order":"","project_code":"","message":"","draft":true,"payment_schedule":30,"balance_in_cents":19600,"currency":"USD","currency_symbol":"$","currency_base_unit":100,"recipient_id":null,"user_id":"13108775","id":"8185325"},"8185315":{"created_at":"2020-02-08T00:10:09-08:00","updated_at":"2020-02-08T00:11:28-08:00","invoice_date":"2020-01-31","due_date":"2020-03-01","status":"new","title":"Draft
        Invoice #11836","user_invoice_number":11836,"user_invoice_title":"","tax_rate":0.0,"purchase_order":"","project_code":"","message":"","draft":true,"payment_schedule":30,"balance_in_cents":23800,"currency":"USD","currency_symbol":"$","currency_base_unit":100,"recipient_id":null,"user_id":"13108775","id":"8185315"},"8185305":{"created_at":"2020-02-07T23:34:33-08:00","updated_at":"2020-02-07T23:34:33-08:00","invoice_date":"2020-01-31","due_date":"2020-03-01","status":"new","title":"Draft
        Invoice #11835","user_invoice_number":11835,"user_invoice_title":"","tax_rate":0.0,"purchase_order":"","project_code":"","message":"","draft":true,"payment_schedule":30,"balance_in_cents":0,"currency":"USD","currency_symbol":"$","currency_base_unit":100,"recipient_id":null,"user_id":"13108775","id":"8185305"},"8185295":{"created_at":"2020-02-07T23:25:12-08:00","updated_at":"2020-02-07T23:25:12-08:00","invoice_date":"2020-01-31","due_date":"2020-03-01","status":"new","title":"Draft
        Invoice #11834","user_invoice_number":11834,"user_invoice_title":"","tax_rate":0.0,"purchase_order":"","project_code":"","message":"","draft":true,"payment_schedule":30,"balance_in_cents":55250,"currency":"USD","currency_symbol":"$","currency_base_unit":100,"recipient_id":null,"user_id":"13108775","id":"8185295"},"8169005":{"created_at":"2020-02-06T00:02:07-08:00","updated_at":"2020-02-06T00:03:27-08:00","invoice_date":"2020-02-06","due_date":"2020-03-07","status":"accepted
        payment","title":"Invoice #11833","user_invoice_number":11833,"user_invoice_title":"","tax_rate":0.0,"purchase_order":"","project_code":"","message":"","draft":false,"payment_schedule":30,"balance_in_cents":144000,"currency":"USD","currency_symbol":"$","currency_base_unit":100,"recipient_id":null,"user_id":"13108775","id":"8169005"},"8168995":{"created_at":"2020-02-05T23:41:05-08:00","updated_at":"2020-02-05T23:42:14-08:00","invoice_date":"2020-01-31","due_date":"2020-03-01","status":"accepted
        payment","title":"Invoice #11832","user_invoice_number":11832,"user_invoice_title":"","tax_rate":0.0,"purchase_order":"","project_code":"","message":"MCP
        - Jan 2020","draft":false,"payment_schedule":30,"balance_in_cents":200000,"currency":"USD","currency_symbol":"$","currency_base_unit":100,"recipient_id":null,"user_id":"13108775","id":"8168995"},"8168985":{"created_at":"2020-02-05T23:37:04-08:00","updated_at":"2020-02-05T23:38:09-08:00","invoice_date":"2020-01-31","due_date":"2020-03-01","status":"accepted
        payment","title":"Invoice #11831","user_invoice_number":11831,"user_invoice_title":"","tax_rate":0.0,"purchase_order":"","project_code":"","message":"MCP
        - Jan 2020","draft":false,"payment_schedule":30,"balance_in_cents":175000,"currency":"USD","currency_symbol":"$","currency_base_unit":100,"recipient_id":null,"user_id":"13108775","id":"8168985"},"8168965":{"created_at":"2020-02-05T23:29:53-08:00","updated_at":"2020-02-05T23:31:05-08:00","invoice_date":"2020-01-31","due_date":"2020-03-01","status":"accepted
        payment","title":"Invoice #11830","user_invoice_number":11830,"user_invoice_title":"","tax_rate":0.0,"purchase_order":"","project_code":"","message":"MCP
        - Jan 2020","draft":false,"payment_schedule":30,"balance_in_cents":90000,"currency":"USD","currency_symbol":"$","currency_base_unit":100,"recipient_id":null,"user_id":"13108775","id":"8168965"},"8168955":{"created_at":"2020-02-05T23:25:07-08:00","updated_at":"2020-02-05T23:26:27-08:00","invoice_date":"2020-01-31","due_date":"2020-03-01","status":"accepted
        payment","title":"Invoice #11829","user_invoice_number":11829,"user_invoice_title":"","tax_rate":0.0,"purchase_order":"","project_code":"","message":"MCP
        - Jan 2020","draft":false,"payment_schedule":30,"balance_in_cents":120000,"currency":"USD","currency_symbol":"$","currency_base_unit":100,"recipient_id":null,"user_id":"13108775","id":"8168955"},"8168935":{"created_at":"2020-02-05T23:16:30-08:00","updated_at":"2020-02-05T23:17:18-08:00","invoice_date":"2020-01-31","due_date":"2020-03-01","status":"accepted
        payment","title":"Invoice #11828","user_invoice_number":11828,"user_invoice_title":"","tax_rate":0.0,"purchase_order":"","project_code":"","message":"MCP
        - Jan 2020","draft":false,"payment_schedule":30,"balance_in_cents":50000,"currency":"USD","currency_symbol":"$","currency_base_unit":100,"recipient_id":null,"user_id":"13108775","id":"8168935"},"8168925":{"created_at":"2020-02-05T23:12:07-08:00","updated_at":"2020-02-05T23:13:10-08:00","invoice_date":"2020-01-31","due_date":"2020-03-01","status":"accepted
        payment","title":"Invoice #11827","user_invoice_number":11827,"user_invoice_title":"","tax_rate":0.0,"purchase_order":"","project_code":"","message":"MCP
        - Jan 2020","draft":false,"payment_schedule":30,"balance_in_cents":175000,"currency":"USD","currency_symbol":"$","currency_base_unit":100,"recipient_id":null,"user_id":"13108775","id":"8168925"},"8168915":{"created_at":"2020-02-05T23:07:27-08:00","updated_at":"2020-02-05T23:08:42-08:00","invoice_date":"2020-01-31","due_date":"2020-03-01","status":"accepted
        payment","title":"Invoice #11826","user_invoice_number":11826,"user_invoice_title":"","tax_rate":0.0,"purchase_order":"","project_code":"","message":"MCP
        - Jan 2020","draft":false,"payment_schedule":30,"balance_in_cents":150000,"currency":"USD","currency_symbol":"$","currency_base_unit":100,"recipient_id":null,"user_id":"13108775","id":"8168915"},"8168885":{"created_at":"2020-02-05T22:52:28-08:00","updated_at":"2020-02-05T22:52:28-08:00","invoice_date":"2020-01-31","due_date":"2020-03-01","status":"new","title":"Invoice
        #11825","user_invoice_number":11825,"user_invoice_title":"","tax_rate":0.0,"purchase_order":"","project_code":"","message":"MCP
        - Jan 2020","draft":false,"payment_schedule":30,"balance_in_cents":250000,"currency":"USD","currency_symbol":"$","currency_base_unit":100,"recipient_id":null,"user_id":"13108775","id":"8168885"},"8168875":{"created_at":"2020-02-05T22:47:33-08:00","updated_at":"2020-02-05T22:49:33-08:00","invoice_date":"2020-01-31","due_date":"2020-03-01","status":"accepted
        payment","title":"Invoice #11824","user_invoice_number":11824,"user_invoice_title":"","tax_rate":0.0,"purchase_order":"","project_code":"","message":"MCP
        - Jan. 2020","draft":false,"payment_schedule":30,"balance_in_cents":100000,"currency":"USD","currency_symbol":"$","currency_base_unit":100,"recipient_id":null,"user_id":"13108775","id":"8168875"},"8168865":{"created_at":"2020-02-05T22:42:18-08:00","updated_at":"2020-02-05T22:43:01-08:00","invoice_date":"2020-01-31","due_date":"2020-03-01","status":"accepted
        payment","title":"Invoice #11823","user_invoice_number":11823,"user_invoice_title":"","tax_rate":0.0,"purchase_order":"","project_code":"","message":"MCP
        - Jan. 2020","draft":false,"payment_schedule":30,"balance_in_cents":100000,"currency":"USD","currency_symbol":"$","currency_base_unit":100,"recipient_id":null,"user_id":"13108775","id":"8168865"},"8168835":{"created_at":"2020-02-05T22:35:51-08:00","updated_at":"2020-02-05T22:36:47-08:00","invoice_date":"2020-01-31","due_date":"2020-03-01","status":"accepted
        payment","title":"Invoice #11822","user_invoice_number":11822,"user_invoice_title":"","tax_rate":0.0,"purchase_order":"","project_code":"","message":"MCP
        - Jan 2020","draft":false,"payment_schedule":30,"balance_in_cents":100000,"currency":"USD","currency_symbol":"$","currency_base_unit":100,"recipient_id":null,"user_id":"13108775","id":"8168835"},"8168815":{"created_at":"2020-02-05T22:30:36-08:00","updated_at":"2020-02-05T22:31:21-08:00","invoice_date":"2020-01-31","due_date":"2020-03-01","status":"accepted
        payment","title":"Invoice #11821","user_invoice_number":11821,"user_invoice_title":"","tax_rate":0.0,"purchase_order":"","project_code":"","message":"MCP
        - Jan. 2020","draft":false,"payment_schedule":30,"balance_in_cents":120000,"currency":"USD","currency_symbol":"$","currency_base_unit":100,"recipient_id":null,"user_id":"13108775","id":"8168815"},"8168795":{"created_at":"2020-02-05T22:22:50-08:00","updated_at":"2020-02-05T22:23:56-08:00","invoice_date":"2020-01-31","due_date":"2020-03-01","status":"accepted
        payment","title":"Invoice #11820","user_invoice_number":11820,"user_invoice_title":"","tax_rate":0.0,"purchase_order":"","project_code":"","message":"MCP
        - Jan. 2020","draft":false,"payment_schedule":30,"balance_in_cents":75000,"currency":"USD","currency_symbol":"$","currency_base_unit":100,"recipient_id":null,"user_id":"13108775","id":"8168795"},"8168755":{"created_at":"2020-02-05T22:17:37-08:00","updated_at":"2020-02-05T22:19:34-08:00","invoice_date":"2020-01-31","due_date":"2020-03-01","status":"accepted
        payment","title":"Invoice #11819","user_invoice_number":11819,"user_invoice_title":"","tax_rate":0.0,"purchase_order":"","project_code":"","message":"MCP
        - Jan. 2020","draft":false,"payment_schedule":30,"balance_in_cents":125000,"currency":"USD","currency_symbol":"$","currency_base_unit":100,"recipient_id":null,"user_id":"13108775","id":"8168755"},"8168725":{"created_at":"2020-02-05T22:08:01-08:00","updated_at":"2020-02-05T22:09:24-08:00","invoice_date":"2020-01-31","due_date":"2020-03-01","status":"accepted
        payment","title":"Invoice #11818","user_invoice_number":11818,"user_invoice_title":"","tax_rate":0.0,"purchase_order":"","project_code":"","message":"MCP
        - Jan. 2020","draft":false,"payment_schedule":30,"balance_in_cents":140000,"currency":"USD","currency_symbol":"$","currency_base_unit":100,"recipient_id":null,"user_id":"13108775","id":"8168725"}},"meta":{"count":2402,"page_count":121,"page_number":1,"page_size":20}}'
    http_version: 
  recorded_at: Sun, 09 Feb 2020 22:23:22 GMT
recorded_with: VCR 5.0.0
