---
http_interactions:
- request:
    method: get
    uri: https://api.mavenlink.com/api/v1/stories
    body:
      encoding: US-ASCII
      string: ''
    headers:
      Authorization:
      - Bearer <API_TOKEN>
  response:
    status:
      code: 200
      message: OK
    headers:
      Date:
      - Mon, 22 Feb 2021 15:45:58 GMT
      Content-Type:
      - application/json; charset=utf-8
      Transfer-Encoding:
      - chunked
      Connection:
      - keep-alive
      Status:
      - 200 OK
      Cache-Control:
      - no-cache, no-store
      Pragma:
      - no-cache
      Expires:
      - Fri, 01 Jan 1990 00:00:00 GMT
      Etag:
      - W/"fc4a4bc37ec4d72c003a8736bc8a1253"
      X-Request-Id:
      - ccf9e087-b9d7-48f4-94b6-570ca7bb5608
      X-Runtime:
      - '0.373296'
      Strict-Transport-Security:
      - max-age=631139040
      X-Content-Type-Options:
      - nosniff
      X-Download-Options:
      - noopen
      X-Frame-Options:
      - SAMEORIGIN
      X-Permitted-Cross-Domain-Policies:
      - none
      X-Xss-Protection:
      - 1; mode=block
    body:
      encoding: UTF-8
      string: '{"count":53325,"results":[{"key":"stories","id":"653235465"},{"key":"stories","id":"653235505"},{"key":"stories","id":"684643815"},{"key":"stories","id":"684644195"},{"key":"stories","id":"684644205"},{"key":"stories","id":"653235495"},{"key":"stories","id":"652538055"},{"key":"stories","id":"652538115"},{"key":"stories","id":"652538105"},{"key":"stories","id":"652537965"},{"key":"stories","id":"652538005"},{"key":"stories","id":"682005015"},{"key":"stories","id":"682005035"},{"key":"stories","id":"654596095"},{"key":"stories","id":"654596235"},{"key":"stories","id":"650614945"},{"key":"stories","id":"650615015"},{"key":"stories","id":"651917825"},{"key":"stories","id":"651917895"},{"key":"stories","id":"652528035"}],"stories":{"653235465":{"title":"2021.02
        [MCP] Monthly Close Process","description":"","updated_at":"2021-02-22T07:45:45-08:00","assignment_timestamped_at":"2021-02-22T07:45:45-08:00","created_at":"2020-12-14T12:44:05-08:00","due_date":"2021-02-18","start_date":"2021-02-04","story_type":"milestone","state":"started","position":100030000,"archived":false,"deleted_at":null,"sub_story_count":8,"percentage_complete":62,"priority":"normal","has_proofing_access":false,"ancestor_ids":[],"subtree_depth":1,"ancestry_depth":0,"time_trackable":true,"time_estimate_in_minutes":0,"logged_billable_time_in_minutes":0,"logged_nonbillable_time_in_minutes":0,"sub_stories_time_estimate_in_minutes":275,"sub_stories_billable_time_in_minutes":253,"weight":null,"budget_estimate_in_cents":45000,"budget_used_in_cents":0,"uninvoiced_balance_in_cents":0,"invoiced_balance_in_cents":0,"sub_stories_budget_estimate_in_cents":0,"sub_stories_budget_used_in_cents":38925,"fixed_fee":true,"billable":true,"workspace_id":"34874385","creator_id":"12220595","parent_id":null,"root_id":null,"id":"653235465"},"653235505":{"title":"3LR","description":"","updated_at":"2021-02-22T07:45:45-08:00","assignment_timestamped_at":"2021-02-22T07:45:45-08:00","created_at":"2020-12-14T12:44:05-08:00","due_date":"2021-02-16","start_date":"2021-02-16","story_type":"task","state":"completed","position":100030000,"archived":false,"deleted_at":null,"sub_story_count":0,"percentage_complete":100,"priority":"normal","has_proofing_access":false,"ancestor_ids":["653235465"],"subtree_depth":0,"ancestry_depth":1,"time_trackable":true,"time_estimate_in_minutes":23,"logged_billable_time_in_minutes":20,"logged_nonbillable_time_in_minutes":0,"sub_stories_time_estimate_in_minutes":null,"sub_stories_billable_time_in_minutes":null,"weight":null,"budget_estimate_in_cents":0,"budget_used_in_cents":4667,"uninvoiced_balance_in_cents":4667,"invoiced_balance_in_cents":0,"sub_stories_budget_estimate_in_cents":null,"sub_stories_budget_used_in_cents":null,"fixed_fee":true,"billable":true,"workspace_id":"34874385","creator_id":"12220595","parent_id":"653235465","root_id":"653235465","id":"653235505"},"684643815":{"title":"Onboarding
        Process","description":"Complete Onboarding Process for New Clients to Kruze
        Consulting","updated_at":"2021-02-22T07:45:26-08:00","assignment_timestamped_at":"2021-02-22T07:45:26-08:00","created_at":"2021-01-11T05:49:59-08:00","due_date":"2021-01-29","start_date":null,"story_type":"deliverable","state":"started","position":100000000,"archived":false,"deleted_at":null,"sub_story_count":56,"percentage_complete":66,"priority":"normal","has_proofing_access":false,"ancestor_ids":[],"subtree_depth":3,"ancestry_depth":0,"time_trackable":true,"time_estimate_in_minutes":null,"logged_billable_time_in_minutes":0,"logged_nonbillable_time_in_minutes":0,"sub_stories_time_estimate_in_minutes":540,"sub_stories_billable_time_in_minutes":496,"weight":null,"budget_estimate_in_cents":200000,"budget_used_in_cents":0,"uninvoiced_balance_in_cents":0,"invoiced_balance_in_cents":200000,"sub_stories_budget_estimate_in_cents":0,"sub_stories_budget_used_in_cents":82182,"fixed_fee":true,"billable":true,"workspace_id":"35491995","creator_id":"11961925","parent_id":null,"root_id":null,"id":"684643815"},"684644195":{"title":"Financial
        Statement Review Process","description":"Financial Statement Review Process","updated_at":"2021-02-22T07:45:26-08:00","assignment_timestamped_at":"2021-02-22T07:45:26-08:00","created_at":"2021-01-11T05:50:00-08:00","due_date":null,"start_date":null,"story_type":"task","state":"started","position":100040000,"archived":false,"deleted_at":null,"sub_story_count":10,"percentage_complete":0,"priority":"normal","has_proofing_access":false,"ancestor_ids":["684643815"],"subtree_depth":2,"ancestry_depth":1,"time_trackable":true,"time_estimate_in_minutes":null,"logged_billable_time_in_minutes":0,"logged_nonbillable_time_in_minutes":0,"sub_stories_time_estimate_in_minutes":90,"sub_stories_billable_time_in_minutes":328,"weight":null,"budget_estimate_in_cents":0,"budget_used_in_cents":0,"uninvoiced_balance_in_cents":0,"invoiced_balance_in_cents":0,"sub_stories_budget_estimate_in_cents":null,"sub_stories_budget_used_in_cents":47382,"fixed_fee":true,"billable":true,"workspace_id":"35491995","creator_id":"11961925","parent_id":"684643815","root_id":"684643815","id":"684644195"},"684644205":{"title":"Bank
        and CC Reconciliations","description":"Please perform the reconciliation for
        the Bank accounts and CC''s through the date outlined in the EL Scope.\nPlease
        add all transactions from the Bank feed, please utilize the Bank Feed Walk-through.
        Additionally, to assign the correct Expense categories, please utilize the
        P\u0026L Expense Allocation sheet\nhttps://docs.google.com/document/d/10c5ZtXlMoPZpstRZ0Orq0YaEXydM2qQcIJ8UCt9pHA8/edit\nhttps://docs.google.com/spreadsheets/d/17J86wlMVvpZckh7W4INYDEqXppmuyh3KapS9GJC35fo/edit\nPlease
        add Vendor names to each transaction. There are multiple walk-through''s for
        Vendors here\nhttps://drive.google.com/drive/u/1/folders/1zcZKnEYRW39DGoL4KcdH1cWEgM5TLeME\nThen
        please reconcile the Bank and CC accounts in QBO. Please use the Bank Reconciliation
        walkthrough\nhttps://docs.google.com/document/d/11T2USlE5VD3Jo6MGRfHpnzjPf0eXMdQvNxI2HEaRnM0/edit\nPlease
        add all bank statements into the client Box folder","updated_at":"2021-02-22T07:45:26-08:00","assignment_timestamped_at":"2021-02-22T07:45:26-08:00","created_at":"2021-01-11T05:50:00-08:00","due_date":null,"start_date":null,"story_type":"task","state":"started","position":100000000,"archived":false,"deleted_at":null,"sub_story_count":0,"percentage_complete":0,"priority":"normal","has_proofing_access":false,"ancestor_ids":["684643815","684644195"],"subtree_depth":0,"ancestry_depth":2,"time_trackable":true,"time_estimate_in_minutes":null,"logged_billable_time_in_minutes":318,"logged_nonbillable_time_in_minutes":0,"sub_stories_time_estimate_in_minutes":null,"sub_stories_billable_time_in_minutes":null,"weight":null,"budget_estimate_in_cents":null,"budget_used_in_cents":45049,"uninvoiced_balance_in_cents":45049,"invoiced_balance_in_cents":0,"sub_stories_budget_estimate_in_cents":null,"sub_stories_budget_used_in_cents":null,"fixed_fee":true,"billable":true,"workspace_id":"35491995","creator_id":"11961925","parent_id":"684644195","root_id":"684643815","id":"684644205"},"653235495":{"title":"2LR","description":"","updated_at":"2021-02-22T07:45:22-08:00","assignment_timestamped_at":"2021-02-22T07:45:22-08:00","created_at":"2020-12-14T12:44:05-08:00","due_date":"2021-02-12","start_date":"2021-02-12","story_type":"task","state":"completed","position":100020000,"archived":false,"deleted_at":null,"sub_story_count":0,"percentage_complete":100,"priority":"normal","has_proofing_access":false,"ancestor_ids":["653235465"],"subtree_depth":0,"ancestry_depth":1,"time_trackable":true,"time_estimate_in_minutes":38,"logged_billable_time_in_minutes":30,"logged_nonbillable_time_in_minutes":0,"sub_stories_time_estimate_in_minutes":null,"sub_stories_billable_time_in_minutes":null,"weight":null,"budget_estimate_in_cents":0,"budget_used_in_cents":5500,"uninvoiced_balance_in_cents":5500,"invoiced_balance_in_cents":0,"sub_stories_budget_estimate_in_cents":null,"sub_stories_budget_used_in_cents":null,"fixed_fee":true,"billable":true,"workspace_id":"34874385","creator_id":"12220595","parent_id":"653235465","root_id":"653235465","id":"653235495"},"652538055":{"title":"2021.02
        [MCP] Monthly Close Process","description":"","updated_at":"2021-02-22T07:44:28-08:00","assignment_timestamped_at":"2021-02-22T07:44:28-08:00","created_at":"2020-12-13T18:17:39-08:00","due_date":"2021-02-18","start_date":"2021-02-04","story_type":"milestone","state":"started","position":100030000,"archived":false,"deleted_at":null,"sub_story_count":8,"percentage_complete":75,"priority":"normal","has_proofing_access":false,"ancestor_ids":[],"subtree_depth":1,"ancestry_depth":0,"time_trackable":true,"time_estimate_in_minutes":0,"logged_billable_time_in_minutes":0,"logged_nonbillable_time_in_minutes":0,"sub_stories_time_estimate_in_minutes":227,"sub_stories_billable_time_in_minutes":236,"weight":null,"budget_estimate_in_cents":37500,"budget_used_in_cents":0,"uninvoiced_balance_in_cents":0,"invoiced_balance_in_cents":0,"sub_stories_budget_estimate_in_cents":0,"sub_stories_budget_used_in_cents":37766,"fixed_fee":true,"billable":true,"workspace_id":"34848735","creator_id":"12220595","parent_id":null,"root_id":null,"id":"652538055"},"652538115":{"title":"Financial
        Packet Delivery","description":"","updated_at":"2021-02-22T07:44:28-08:00","assignment_timestamped_at":"2021-02-22T07:44:28-08:00","created_at":"2020-12-13T18:17:39-08:00","due_date":"2021-02-18","start_date":"2021-02-18","story_type":"task","state":"completed","position":100050000,"archived":false,"deleted_at":null,"sub_story_count":0,"percentage_complete":100,"priority":"normal","has_proofing_access":false,"ancestor_ids":["652538055"],"subtree_depth":0,"ancestry_depth":1,"time_trackable":true,"time_estimate_in_minutes":10,"logged_billable_time_in_minutes":10,"logged_nonbillable_time_in_minutes":0,"sub_stories_time_estimate_in_minutes":null,"sub_stories_billable_time_in_minutes":null,"weight":null,"budget_estimate_in_cents":0,"budget_used_in_cents":2333,"uninvoiced_balance_in_cents":2333,"invoiced_balance_in_cents":0,"sub_stories_budget_estimate_in_cents":null,"sub_stories_budget_used_in_cents":null,"fixed_fee":true,"billable":true,"workspace_id":"34848735","creator_id":"12220595","parent_id":"652538055","root_id":"652538055","id":"652538115"},"652538105":{"title":"Financial
        Packet, Q\u0026A, and Email Draft","description":null,"updated_at":"2021-02-22T07:44:11-08:00","assignment_timestamped_at":"2021-02-22T07:44:11-08:00","created_at":"2020-12-13T18:17:39-08:00","due_date":"2021-02-18","start_date":"2021-02-18","story_type":"task","state":"completed","position":100040000,"archived":false,"deleted_at":null,"sub_story_count":0,"percentage_complete":100,"priority":"normal","has_proofing_access":false,"ancestor_ids":["652538055"],"subtree_depth":0,"ancestry_depth":1,"time_trackable":true,"time_estimate_in_minutes":10,"logged_billable_time_in_minutes":10,"logged_nonbillable_time_in_minutes":0,"sub_stories_time_estimate_in_minutes":null,"sub_stories_billable_time_in_minutes":null,"weight":null,"budget_estimate_in_cents":0,"budget_used_in_cents":2333,"uninvoiced_balance_in_cents":2333,"invoiced_balance_in_cents":0,"sub_stories_budget_estimate_in_cents":null,"sub_stories_budget_used_in_cents":null,"fixed_fee":true,"billable":true,"workspace_id":"34848735","creator_id":"12220595","parent_id":"652538055","root_id":"652538055","id":"652538105"},"652537965":{"title":"2021.01
        [MCP] Monthly Close Process","description":"","updated_at":"2021-02-22T07:43:52-08:00","assignment_timestamped_at":"2021-02-22T07:43:52-08:00","created_at":"2020-12-13T18:17:39-08:00","due_date":"2021-01-21","start_date":"2021-01-07","story_type":"milestone","state":"completed","position":100020000,"archived":false,"deleted_at":null,"sub_story_count":8,"percentage_complete":75,"priority":"normal","has_proofing_access":false,"ancestor_ids":[],"subtree_depth":1,"ancestry_depth":0,"time_trackable":true,"time_estimate_in_minutes":0,"logged_billable_time_in_minutes":0,"logged_nonbillable_time_in_minutes":0,"sub_stories_time_estimate_in_minutes":227,"sub_stories_billable_time_in_minutes":307,"weight":null,"budget_estimate_in_cents":37500,"budget_used_in_cents":0,"uninvoiced_balance_in_cents":0,"invoiced_balance_in_cents":37500,"sub_stories_budget_estimate_in_cents":0,"sub_stories_budget_used_in_cents":54783,"fixed_fee":true,"billable":true,"workspace_id":"34848735","creator_id":"12220595","parent_id":null,"root_id":null,"id":"652537965"},"652538005":{"title":"3LR","description":"","updated_at":"2021-02-22T07:43:52-08:00","assignment_timestamped_at":"2021-02-22T07:43:52-08:00","created_at":"2020-12-13T18:17:39-08:00","due_date":"2021-01-20","start_date":"2021-01-20","story_type":"task","state":"completed","position":100030000,"archived":false,"deleted_at":null,"sub_story_count":0,"percentage_complete":100,"priority":"normal","has_proofing_access":false,"ancestor_ids":["652537965"],"subtree_depth":0,"ancestry_depth":1,"time_trackable":true,"time_estimate_in_minutes":23,"logged_billable_time_in_minutes":60,"logged_nonbillable_time_in_minutes":0,"sub_stories_time_estimate_in_minutes":null,"sub_stories_billable_time_in_minutes":null,"weight":null,"budget_estimate_in_cents":0,"budget_used_in_cents":14000,"uninvoiced_balance_in_cents":14000,"invoiced_balance_in_cents":0,"sub_stories_budget_estimate_in_cents":null,"sub_stories_budget_used_in_cents":null,"fixed_fee":true,"billable":true,"workspace_id":"34848735","creator_id":"12220595","parent_id":"652537965","root_id":"652537965","id":"652538005"},"682005015":{"title":"Monthly
        Review for December 2020","description":null,"updated_at":"2021-02-22T07:43:50-08:00","assignment_timestamped_at":"2021-02-22T07:43:50-08:00","created_at":"2021-01-05T11:01:57-08:00","due_date":"2021-01-19","start_date":"2021-01-14","story_type":"task","state":"completed","position":99940000,"archived":false,"deleted_at":null,"sub_story_count":4,"percentage_complete":100,"priority":"normal","has_proofing_access":false,"ancestor_ids":[],"subtree_depth":1,"ancestry_depth":0,"time_trackable":true,"time_estimate_in_minutes":null,"logged_billable_time_in_minutes":993,"logged_nonbillable_time_in_minutes":0,"sub_stories_time_estimate_in_minutes":270,"sub_stories_billable_time_in_minutes":85,"weight":null,"budget_estimate_in_cents":100000,"budget_used_in_cents":153506,"uninvoiced_balance_in_cents":153506,"invoiced_balance_in_cents":0,"sub_stories_budget_estimate_in_cents":null,"sub_stories_budget_used_in_cents":16992,"fixed_fee":true,"billable":true,"workspace_id":"34341425","creator_id":"16724975","parent_id":null,"root_id":null,"id":"682005015"},"682005035":{"title":"1LR","description":"","updated_at":"2021-02-22T07:43:50-08:00","assignment_timestamped_at":"2021-02-22T07:43:50-08:00","created_at":"2021-01-05T11:01:57-08:00","due_date":"2021-01-15","start_date":"2021-01-14","story_type":"task","state":"completed","position":100010000,"archived":false,"deleted_at":null,"sub_story_count":0,"percentage_complete":100,"priority":"normal","has_proofing_access":false,"ancestor_ids":["682005015"],"subtree_depth":0,"ancestry_depth":1,"time_trackable":true,"time_estimate_in_minutes":90,"logged_billable_time_in_minutes":31,"logged_nonbillable_time_in_minutes":0,"sub_stories_time_estimate_in_minutes":null,"sub_stories_billable_time_in_minutes":null,"weight":null,"budget_estimate_in_cents":null,"budget_used_in_cents":4392,"uninvoiced_balance_in_cents":4392,"invoiced_balance_in_cents":0,"sub_stories_budget_estimate_in_cents":null,"sub_stories_budget_used_in_cents":null,"fixed_fee":true,"billable":true,"workspace_id":"34341425","creator_id":"16724975","parent_id":"682005015","root_id":"682005015","id":"682005035"},"654596095":{"title":"2021.01
        [MCP] Monthly Close Process","description":"","updated_at":"2021-02-22T07:43:01-08:00","assignment_timestamped_at":"2021-02-22T07:43:01-08:00","created_at":"2020-12-15T13:16:34-08:00","due_date":"2021-01-28","start_date":"2021-01-14","story_type":"milestone","state":"started","position":100020000,"archived":false,"deleted_at":null,"sub_story_count":8,"percentage_complete":75,"priority":"normal","has_proofing_access":false,"ancestor_ids":[],"subtree_depth":1,"ancestry_depth":0,"time_trackable":true,"time_estimate_in_minutes":0,"logged_billable_time_in_minutes":0,"logged_nonbillable_time_in_minutes":0,"sub_stories_time_estimate_in_minutes":223,"sub_stories_billable_time_in_minutes":303,"weight":null,"budget_estimate_in_cents":50000,"budget_used_in_cents":0,"uninvoiced_balance_in_cents":0,"invoiced_balance_in_cents":50000,"sub_stories_budget_estimate_in_cents":0,"sub_stories_budget_used_in_cents":54883,"fixed_fee":true,"billable":true,"workspace_id":"35016685","creator_id":"12220595","parent_id":null,"root_id":null,"id":"654596095"},"654596235":{"title":"Post
        Close Adjustment","description":"","updated_at":"2021-02-22T07:43:01-08:00","assignment_timestamped_at":"2021-02-22T07:43:01-08:00","created_at":"2020-12-15T13:16:34-08:00","due_date":null,"start_date":null,"story_type":"task","state":"started","position":100060000,"archived":false,"deleted_at":null,"sub_story_count":0,"percentage_complete":0,"priority":"normal","has_proofing_access":false,"ancestor_ids":["654596095"],"subtree_depth":0,"ancestry_depth":1,"time_trackable":true,"time_estimate_in_minutes":0,"logged_billable_time_in_minutes":20,"logged_nonbillable_time_in_minutes":0,"sub_stories_time_estimate_in_minutes":null,"sub_stories_billable_time_in_minutes":null,"weight":null,"budget_estimate_in_cents":0,"budget_used_in_cents":4667,"uninvoiced_balance_in_cents":4667,"invoiced_balance_in_cents":0,"sub_stories_budget_estimate_in_cents":null,"sub_stories_budget_used_in_cents":null,"fixed_fee":true,"billable":true,"workspace_id":"35016685","creator_id":"12220595","parent_id":"654596095","root_id":"654596095","id":"654596235"},"650614945":{"title":"2021.02
        [MCP] Monthly Close Process","description":"","updated_at":"2021-02-22T07:42:34-08:00","assignment_timestamped_at":"2021-02-22T07:42:34-08:00","created_at":"2020-12-09T18:10:43-08:00","due_date":"2021-02-11","start_date":"2021-01-25","story_type":"milestone","state":"started","position":99969375,"archived":false,"deleted_at":null,"sub_story_count":8,"percentage_complete":62,"priority":"normal","has_proofing_access":false,"ancestor_ids":[],"subtree_depth":1,"ancestry_depth":0,"time_trackable":true,"time_estimate_in_minutes":0,"logged_billable_time_in_minutes":0,"logged_nonbillable_time_in_minutes":0,"sub_stories_time_estimate_in_minutes":480,"sub_stories_billable_time_in_minutes":932,"weight":null,"budget_estimate_in_cents":110000,"budget_used_in_cents":0,"uninvoiced_balance_in_cents":0,"invoiced_balance_in_cents":0,"sub_stories_budget_estimate_in_cents":0,"sub_stories_budget_used_in_cents":165992,"fixed_fee":true,"billable":true,"workspace_id":"34785055","creator_id":"12220595","parent_id":null,"root_id":null,"id":"650614945"},"650615015":{"title":"Post
        Close Adjustment","description":"","updated_at":"2021-02-22T07:42:34-08:00","assignment_timestamped_at":"2021-02-22T07:42:34-08:00","created_at":"2020-12-09T18:10:43-08:00","due_date":null,"start_date":null,"story_type":"task","state":"started","position":100060000,"archived":false,"deleted_at":null,"sub_story_count":0,"percentage_complete":0,"priority":"normal","has_proofing_access":false,"ancestor_ids":["650614945"],"subtree_depth":0,"ancestry_depth":1,"time_trackable":true,"time_estimate_in_minutes":0,"logged_billable_time_in_minutes":75,"logged_nonbillable_time_in_minutes":0,"sub_stories_time_estimate_in_minutes":null,"sub_stories_billable_time_in_minutes":null,"weight":null,"budget_estimate_in_cents":0,"budget_used_in_cents":17500,"uninvoiced_balance_in_cents":17500,"invoiced_balance_in_cents":0,"sub_stories_budget_estimate_in_cents":null,"sub_stories_budget_used_in_cents":null,"fixed_fee":true,"billable":true,"workspace_id":"34785055","creator_id":"12220595","parent_id":"650614945","root_id":"650614945","id":"650615015"},"651917825":{"title":"2021.02
        [MCP] Monthly Close Process","description":"","updated_at":"2021-02-22T07:42:00-08:00","assignment_timestamped_at":"2021-02-22T07:42:00-08:00","created_at":"2020-12-11T20:25:09-08:00","due_date":"2021-02-11","start_date":"2021-01-26","story_type":"milestone","state":"started","position":100030000,"archived":false,"deleted_at":null,"sub_story_count":8,"percentage_complete":62,"priority":"normal","has_proofing_access":false,"ancestor_ids":[],"subtree_depth":1,"ancestry_depth":0,"time_trackable":true,"time_estimate_in_minutes":0,"logged_billable_time_in_minutes":0,"logged_nonbillable_time_in_minutes":0,"sub_stories_time_estimate_in_minutes":834,"sub_stories_billable_time_in_minutes":1130,"weight":null,"budget_estimate_in_cents":145000,"budget_used_in_cents":0,"uninvoiced_balance_in_cents":0,"invoiced_balance_in_cents":0,"sub_stories_budget_estimate_in_cents":0,"sub_stories_budget_used_in_cents":195166,"fixed_fee":true,"billable":true,"workspace_id":"34834735","creator_id":"12220595","parent_id":null,"root_id":null,"id":"651917825"},"651917895":{"title":"Post
        Close Adjustment","description":"","updated_at":"2021-02-22T07:42:00-08:00","assignment_timestamped_at":"2021-02-22T07:42:00-08:00","created_at":"2020-12-11T20:25:09-08:00","due_date":null,"start_date":null,"story_type":"task","state":"started","position":100060000,"archived":false,"deleted_at":null,"sub_story_count":0,"percentage_complete":0,"priority":"normal","has_proofing_access":false,"ancestor_ids":["651917825"],"subtree_depth":0,"ancestry_depth":1,"time_trackable":true,"time_estimate_in_minutes":0,"logged_billable_time_in_minutes":90,"logged_nonbillable_time_in_minutes":0,"sub_stories_time_estimate_in_minutes":null,"sub_stories_billable_time_in_minutes":null,"weight":null,"budget_estimate_in_cents":0,"budget_used_in_cents":21000,"uninvoiced_balance_in_cents":21000,"invoiced_balance_in_cents":0,"sub_stories_budget_estimate_in_cents":null,"sub_stories_budget_used_in_cents":null,"fixed_fee":true,"billable":true,"workspace_id":"34834735","creator_id":"12220595","parent_id":"651917825","root_id":"651917825","id":"651917895"},"652528035":{"title":"2021.02
        [MCP] Monthly Close Process","description":"","updated_at":"2021-02-22T07:41:16-08:00","assignment_timestamped_at":"2021-02-22T07:41:16-08:00","created_at":"2020-12-13T18:13:37-08:00","due_date":"2021-02-18","start_date":"2021-02-04","story_type":"milestone","state":"started","position":100030000,"archived":false,"deleted_at":null,"sub_story_count":8,"percentage_complete":62,"priority":"normal","has_proofing_access":false,"ancestor_ids":[],"subtree_depth":1,"ancestry_depth":0,"time_trackable":true,"time_estimate_in_minutes":0,"logged_billable_time_in_minutes":0,"logged_nonbillable_time_in_minutes":0,"sub_stories_time_estimate_in_minutes":83,"sub_stories_billable_time_in_minutes":155,"weight":null,"budget_estimate_in_cents":37500,"budget_used_in_cents":0,"uninvoiced_balance_in_cents":0,"invoiced_balance_in_cents":0,"sub_stories_budget_estimate_in_cents":0,"sub_stories_budget_used_in_cents":26542,"fixed_fee":true,"billable":true,"workspace_id":"34848625","creator_id":"12220595","parent_id":null,"root_id":null,"id":"652528035"}},"meta":{"count":53325,"page_count":2667,"page_number":1,"page_size":20}}'
    http_version: 
  recorded_at: Mon, 22 Feb 2021 15:45:59 GMT
recorded_with: VCR 5.0.0
