---
http_interactions:
- request:
    method: get
    uri: https://api.mavenlink.com/api/v1/invoices?workspace_id=27254285
    body:
      encoding: US-ASCII
      string: ''
    headers:
      Authorization:
      - Bearer <API_TOKEN>
  response:
    status:
      code: 200
      message: OK
    headers:
      Date:
      - Wed, 17 Feb 2021 15:45:00 GMT
      Content-Type:
      - application/json; charset=utf-8
      Transfer-Encoding:
      - chunked
      Connection:
      - keep-alive
      Status:
      - 200 OK
      Cache-Control:
      - no-cache, no-store
      Pragma:
      - no-cache
      Expires:
      - Fri, 01 Jan 1990 00:00:00 GMT
      Etag:
      - W/"4eca4c129ff98055302f808fd9cb7e4d"
      X-Request-Id:
      - 968177a4-be56-45c5-a640-8b3deea87d1d
      X-Runtime:
      - '0.125184'
      Strict-Transport-Security:
      - max-age=631139040
      X-Content-Type-Options:
      - nosniff
      X-Download-Options:
      - noopen
      X-Frame-Options:
      - SAMEORIGIN
      X-Permitted-Cross-Domain-Policies:
      - none
      X-Xss-Protection:
      - 1; mode=block
    body:
      encoding: UTF-8
      string: '{"count":22,"results":[{"key":"invoices","id":"10358465"},{"key":"invoices","id":"10175005"},{"key":"invoices","id":"10035645"},{"key":"invoices","id":"9788005"},{"key":"invoices","id":"9558015"},{"key":"invoices","id":"9357215"},{"key":"invoices","id":"9162755"},{"key":"invoices","id":"8972035"},{"key":"invoices","id":"8743955"},{"key":"invoices","id":"8685375"},{"key":"invoices","id":"8596755"},{"key":"invoices","id":"8402215"},{"key":"invoices","id":"8379695"},{"key":"invoices","id":"8185315"},{"key":"invoices","id":"8015835"},{"key":"invoices","id":"7842515"},{"key":"invoices","id":"7661535"},{"key":"invoices","id":"7504085"},{"key":"invoices","id":"7504065"},{"key":"invoices","id":"7503365"}],"invoices":{"10358465":{"created_at":"2021-01-05T21:40:01-08:00","updated_at":"2021-02-10T01:48:51-08:00","invoice_date":"2020-12-31","due_date":"2021-01-30","status":"accepted
        payment","title":"Invoice #17965","user_invoice_number":17965,"user_invoice_title":"","tax_rate":0.0,"purchase_order":"","project_code":"","message":"","draft":false,"payment_schedule":30,"balance_in_cents":79867,"currency":"USD","currency_symbol":"$","currency_base_unit":100,"recipient_id":null,"user_id":"13108775","id":"10358465"},"10175005":{"created_at":"2020-12-05T23:37:51-08:00","updated_at":"2021-01-14T14:28:41-08:00","invoice_date":"2020-11-30","due_date":"2020-12-30","status":"accepted
        payment","title":"Invoice #17275","user_invoice_number":17275,"user_invoice_title":"","tax_rate":0.0,"purchase_order":"","project_code":"","message":"","draft":false,"payment_schedule":30,"balance_in_cents":33175,"currency":"USD","currency_symbol":"$","currency_base_unit":100,"recipient_id":null,"user_id":"13108775","id":"10175005"},"10035645":{"created_at":"2020-11-17T10:05:08-08:00","updated_at":"2020-12-09T00:11:50-08:00","invoice_date":"2020-10-31","due_date":"2020-11-30","status":"accepted
        payment","title":"Invoice #16948","user_invoice_number":16948,"user_invoice_title":"","tax_rate":0.0,"purchase_order":"","project_code":"","message":"","draft":false,"payment_schedule":30,"balance_in_cents":120525,"currency":"USD","currency_symbol":"$","currency_base_unit":100,"recipient_id":null,"user_id":"11962035","id":"10035645"},"9788005":{"created_at":"2020-10-07T20:52:42-07:00","updated_at":"2020-11-11T21:38:12-08:00","invoice_date":"2020-09-30","due_date":"2020-10-30","status":"accepted
        payment","title":"Invoice #16145","user_invoice_number":16145,"user_invoice_title":"","tax_rate":0.0,"purchase_order":"","project_code":"","message":"","draft":false,"payment_schedule":30,"balance_in_cents":28700,"currency":"USD","currency_symbol":"$","currency_base_unit":100,"recipient_id":null,"user_id":"13108775","id":"9788005"},"9558015":{"created_at":"2020-09-03T10:13:43-07:00","updated_at":"2020-10-10T21:45:44-07:00","invoice_date":"2020-08-31","due_date":"2020-09-30","status":"accepted
        payment","title":"Invoice #15726","user_invoice_number":15726,"user_invoice_title":"","tax_rate":0.0,"purchase_order":"","project_code":"","message":"","draft":false,"payment_schedule":30,"balance_in_cents":109617,"currency":"USD","currency_symbol":"$","currency_base_unit":100,"recipient_id":null,"user_id":"13108775","id":"9558015"},"9357215":{"created_at":"2020-08-09T20:26:26-07:00","updated_at":"2020-09-11T00:46:22-07:00","invoice_date":"2020-07-31","due_date":"2020-08-30","status":"accepted
        payment","title":"Invoice #15063","user_invoice_number":15063,"user_invoice_title":"","tax_rate":0.0,"purchase_order":"","project_code":"","message":"","draft":false,"payment_schedule":30,"balance_in_cents":83600,"currency":"USD","currency_symbol":"$","currency_base_unit":100,"recipient_id":null,"user_id":"13108775","id":"9357215"},"9162755":{"created_at":"2020-07-09T08:26:51-07:00","updated_at":"2020-08-04T06:37:25-07:00","invoice_date":"2020-06-30","due_date":"2020-07-30","status":"accepted
        payment","title":"Invoice #14447","user_invoice_number":14447,"user_invoice_title":"","tax_rate":0.0,"purchase_order":"","project_code":"","message":"","draft":false,"payment_schedule":30,"balance_in_cents":47833,"currency":"USD","currency_symbol":"$","currency_base_unit":100,"recipient_id":null,"user_id":"13108775","id":"9162755"},"8972035":{"created_at":"2020-06-05T22:11:45-07:00","updated_at":"2020-07-02T23:50:48-07:00","invoice_date":"2020-05-31","due_date":"2020-06-30","status":"accepted
        payment","title":"Invoice #13812","user_invoice_number":13812,"user_invoice_title":"","tax_rate":0.0,"purchase_order":"","project_code":"","message":"","draft":false,"payment_schedule":30,"balance_in_cents":81150,"currency":"USD","currency_symbol":"$","currency_base_unit":100,"recipient_id":null,"user_id":"13108775","id":"8972035"},"8743955":{"created_at":"2020-05-06T19:18:23-07:00","updated_at":"2020-06-07T23:57:16-07:00","invoice_date":"2020-05-06","due_date":"2020-06-05","status":"accepted
        payment","title":"Invoice #13362","user_invoice_number":13362,"user_invoice_title":"","tax_rate":0.0,"purchase_order":"","project_code":"","message":"","draft":false,"payment_schedule":30,"balance_in_cents":75133,"currency":"USD","currency_symbol":"$","currency_base_unit":100,"recipient_id":null,"user_id":"13108775","id":"8743955"},"8685375":{"created_at":"2020-04-30T23:15:04-07:00","updated_at":"2020-04-30T23:15:46-07:00","invoice_date":"2019-08-31","due_date":"2019-09-30","status":"accepted
        payment","title":"Invoice #13301","user_invoice_number":13301,"user_invoice_title":"","tax_rate":0.0,"purchase_order":"","project_code":"","message":"","draft":false,"payment_schedule":30,"balance_in_cents":281802,"currency":"USD","currency_symbol":"$","currency_base_unit":100,"recipient_id":null,"user_id":"13108775","id":"8685375"},"8596755":{"created_at":"2020-04-13T14:15:16-07:00","updated_at":"2020-05-13T15:52:43-07:00","invoice_date":"2020-03-31","due_date":"2020-04-30","status":"accepted
        payment","title":"Invoice #12833","user_invoice_number":12833,"user_invoice_title":"","tax_rate":0.0,"purchase_order":"","project_code":"","message":"","draft":false,"payment_schedule":30,"balance_in_cents":31733,"currency":"USD","currency_symbol":"$","currency_base_unit":100,"recipient_id":null,"user_id":"13108775","id":"8596755"},"8402215":{"created_at":"2020-03-11T19:09:06-07:00","updated_at":"2020-04-07T23:10:00-07:00","invoice_date":"2020-02-29","due_date":"2020-03-30","status":"accepted
        payment","title":"Invoice #12537","user_invoice_number":12537,"user_invoice_title":"","tax_rate":0.0,"purchase_order":"","project_code":"","message":"","draft":false,"payment_schedule":30,"balance_in_cents":129333,"currency":"USD","currency_symbol":"$","currency_base_unit":100,"recipient_id":null,"user_id":"13108775","id":"8402215"},"8379695":{"created_at":"2020-03-07T20:18:15-08:00","updated_at":"2020-03-11T19:04:55-07:00","invoice_date":"2020-02-29","due_date":"2020-03-30","status":"cancelled","title":"Invoice
        #12420","user_invoice_number":12420,"user_invoice_title":"","tax_rate":0.0,"purchase_order":"","project_code":"","message":"","draft":false,"payment_schedule":30,"balance_in_cents":108500,"currency":"USD","currency_symbol":"$","currency_base_unit":100,"recipient_id":null,"user_id":"13108775","id":"8379695"},"8185315":{"created_at":"2020-02-10T18:34:28-08:00","updated_at":"2020-03-02T13:21:24-08:00","invoice_date":"2020-01-31","due_date":"2020-03-01","status":"accepted
        payment","title":"Invoice #11836","user_invoice_number":11836,"user_invoice_title":"","tax_rate":0.0,"purchase_order":"","project_code":"","message":"","draft":false,"payment_schedule":30,"balance_in_cents":23800,"currency":"USD","currency_symbol":"$","currency_base_unit":100,"recipient_id":null,"user_id":"13108775","id":"8185315"},"8015835":{"created_at":"2020-01-07T22:12:05-08:00","updated_at":"2020-01-31T22:30:15-08:00","invoice_date":"2019-12-31","due_date":"2020-01-30","status":"accepted
        payment","title":"Invoice #11264","user_invoice_number":11264,"user_invoice_title":"","tax_rate":0.0,"purchase_order":"","project_code":"","message":"","draft":false,"payment_schedule":30,"balance_in_cents":17917,"currency":"USD","currency_symbol":"$","currency_base_unit":100,"recipient_id":null,"user_id":"12148565","id":"8015835"},"7842515":{"created_at":"2019-12-03T21:12:21-08:00","updated_at":"2020-01-22T05:03:41-08:00","invoice_date":"2019-11-30","due_date":"2019-12-30","status":"accepted
        payment","title":"Invoice #11025","user_invoice_number":11025,"user_invoice_title":"","tax_rate":0.0,"purchase_order":"","project_code":"","message":"","draft":false,"payment_schedule":30,"balance_in_cents":2833,"currency":"USD","currency_symbol":"$","currency_base_unit":100,"recipient_id":null,"user_id":"12148565","id":"7842515"},"7661535":{"created_at":"2019-11-02T10:32:30-07:00","updated_at":"2019-12-22T15:07:26-08:00","invoice_date":"2019-10-31","due_date":"2019-11-30","status":"accepted
        payment","title":"Invoice #10763","user_invoice_number":10763,"user_invoice_title":"","tax_rate":0.0,"purchase_order":"","project_code":"","message":"","draft":false,"payment_schedule":30,"balance_in_cents":14458,"currency":"USD","currency_symbol":"$","currency_base_unit":100,"recipient_id":null,"user_id":"12148565","id":"7661535"},"7504085":{"created_at":"2019-10-02T12:30:06-07:00","updated_at":"2019-11-09T19:04:56-08:00","invoice_date":"2019-09-30","due_date":"2019-10-30","status":"accepted
        payment","title":"Invoice #10451","user_invoice_number":10451,"user_invoice_title":"ALPHARANK","tax_rate":0.0,"purchase_order":"","project_code":"","message":"","draft":false,"payment_schedule":30,"balance_in_cents":21067,"currency":"USD","currency_symbol":"$","currency_base_unit":100,"recipient_id":null,"user_id":"11962035","id":"7504085"},"7504065":{"created_at":"2019-10-02T12:29:15-07:00","updated_at":"2019-10-02T12:29:39-07:00","invoice_date":"2019-10-02","due_date":"2019-11-01","status":"cancelled","title":"Invoice
        #10450","user_invoice_number":10450,"user_invoice_title":"ALPHARANK","tax_rate":0.0,"purchase_order":"","project_code":"","message":"","draft":false,"payment_schedule":30,"balance_in_cents":21067,"currency":"USD","currency_symbol":"$","currency_base_unit":100,"recipient_id":null,"user_id":"11962035","id":"7504065"},"7503365":{"created_at":"2019-10-02T12:01:27-07:00","updated_at":"2019-10-02T12:28:38-07:00","invoice_date":"2019-09-30","due_date":"2019-10-30","status":"cancelled","title":"Invoice
        #10447","user_invoice_number":10447,"user_invoice_title":"ALPHARANK","tax_rate":0.0,"purchase_order":"","project_code":"","message":"","draft":false,"payment_schedule":30,"balance_in_cents":21067,"currency":"USD","currency_symbol":"$","currency_base_unit":100,"recipient_id":null,"user_id":"11962035","id":"7503365"}},"meta":{"count":22,"page_count":2,"page_number":1,"page_size":20}}'
    http_version: 
  recorded_at: Wed, 17 Feb 2021 15:45:01 GMT
recorded_with: VCR 5.0.0
